{
    "500.perlbench_r": 0,
    "403.gcc": 34,
    "502.gcc_r": 66,
    "505.mcf_r": 6,
    "520.omnetpp_r": 0,
    "523.xalancbmk_r": 40,
    "525.x264_r": 18,
    "531.deepsjeng_r": 15,
    "541.leela_r": 12,
    "557.xz_r":10,
    "507.cactuBSSN_r": 29,
    "508.namd_r": 10,
    "510.parest_r": 25,
    "511.povray_r": 36,
    "519.lbm_r": 2,
    "526.blender_r": 51,
    "538.imagick_r": 49,
    "544.nab_r":13
}
